"","HH6","HH7","WM6Y","FG1","FG3","FG13","FG14","FG15","FG16","windex5","HH6.desc","HH7.desc","WM6Y.desc","FG1.desc","FG3.desc","FG13.desc","FG14.desc","FG15.desc","FG16.desc","windex5.desc","country"
"1",2,3,NA,1,2,1,NA,2,NA,2,"Rural","Turkana",NA,"Yes","No","1",NA,"No",NA,"Second","Kenya (Turkana County)_MICS5_Datasets"
"2",2,3,NA,1,2,0,NA,2,NA,2,"Rural","Turkana",NA,"Yes","No","0",NA,"No",NA,"Second","Kenya (Turkana County)_MICS5_Datasets"
"3",2,3,NA,1,2,3,NA,2,NA,2,"Rural","Turkana",NA,"Yes","No","3",NA,"No",NA,"Second","Kenya (Turkana County)_MICS5_Datasets"
"4",2,3,NA,1,2,7,NA,2,NA,2,"Rural","Turkana",NA,"Yes","No","7",NA,"No",NA,"Second","Kenya (Turkana County)_MICS5_Datasets"
"5",2,3,NA,1,2,9,NA,2,NA,1,"Rural","Turkana",NA,"Yes","No","9",NA,"No",NA,"Poorest","Kenya (Turkana County)_MICS5_Datasets"
"6",2,3,NA,1,2,11,NA,2,NA,1,"Rural","Turkana",NA,"Yes","No","11",NA,"No",NA,"Poorest","Kenya (Turkana County)_MICS5_Datasets"
"7",2,3,NA,1,2,14,NA,2,NA,1,"Rural","Turkana",NA,"Yes","No","14",NA,"No",NA,"Poorest","Kenya (Turkana County)_MICS5_Datasets"
"8",2,3,NA,1,2,1,NA,2,NA,2,"Rural","Turkana",NA,"Yes","No","1",NA,"No",NA,"Second","Kenya (Turkana County)_MICS5_Datasets"
"9",2,3,NA,1,2,4,NA,2,NA,2,"Rural","Turkana",NA,"Yes","No","4",NA,"No",NA,"Second","Kenya (Turkana County)_MICS5_Datasets"
"10",2,3,NA,1,2,7,NA,2,NA,2,"Rural","Turkana",NA,"Yes","No","7",NA,"No",NA,"Second","Kenya (Turkana County)_MICS5_Datasets"
"11",2,3,NA,1,2,8,NA,2,NA,2,"Rural","Turkana",NA,"Yes","No","8",NA,"No",NA,"Second","Kenya (Turkana County)_MICS5_Datasets"
"12",2,3,NA,1,2,22,NA,NA,NA,2,"Rural","Turkana",NA,"Yes","No","22",NA,NA,NA,"Second","Kenya (Turkana County)_MICS5_Datasets"
"13",2,3,NA,1,2,3,NA,2,NA,2,"Rural","Turkana",NA,"Yes","No","3",NA,"No",NA,"Second","Kenya (Turkana County)_MICS5_Datasets"
"14",2,3,NA,1,2,6,NA,2,NA,2,"Rural","Turkana",NA,"Yes","No","6",NA,"No",NA,"Second","Kenya (Turkana County)_MICS5_Datasets"
"15",2,3,NA,1,2,3,NA,2,NA,1,"Rural","Turkana",NA,"Yes","No","3",NA,"No",NA,"Poorest","Kenya (Turkana County)_MICS5_Datasets"
"16",2,3,NA,1,2,1,NA,2,NA,1,"Rural","Turkana",NA,"Yes","No","1",NA,"No",NA,"Poorest","Kenya (Turkana County)_MICS5_Datasets"
"17",2,3,NA,1,2,2,NA,2,NA,2,"Rural","Turkana",NA,"Yes","No","2",NA,"No",NA,"Second","Kenya (Turkana County)_MICS5_Datasets"
"18",2,3,NA,1,2,0,NA,2,NA,3,"Rural","Turkana",NA,"Yes","No","0",NA,"No",NA,"Middle","Kenya (Turkana County)_MICS5_Datasets"
"19",2,3,NA,1,2,3,NA,2,NA,3,"Rural","Turkana",NA,"Yes","No","3",NA,"No",NA,"Middle","Kenya (Turkana County)_MICS5_Datasets"
"20",2,3,NA,1,9,2,NA,9,NA,3,"Rural","Turkana",NA,"Yes","Missing","2",NA,"Missing",NA,"Middle","Kenya (Turkana County)_MICS5_Datasets"
"21",2,3,NA,1,9,4,NA,9,NA,3,"Rural","Turkana",NA,"Yes","Missing","4",NA,"Missing",NA,"Middle","Kenya (Turkana County)_MICS5_Datasets"
"22",2,3,NA,1,2,0,NA,2,NA,1,"Rural","Turkana",NA,"Yes","No","0",NA,"No",NA,"Poorest","Kenya (Turkana County)_MICS5_Datasets"
"23",2,3,NA,1,2,3,NA,2,NA,1,"Rural","Turkana",NA,"Yes","No","3",NA,"No",NA,"Poorest","Kenya (Turkana County)_MICS5_Datasets"
"24",2,3,NA,1,2,12,NA,2,NA,1,"Rural","Turkana",NA,"Yes","No","12",NA,"No",NA,"Poorest","Kenya (Turkana County)_MICS5_Datasets"
"25",2,3,NA,1,2,5,NA,2,NA,1,"Rural","Turkana",NA,"Yes","No","5",NA,"No",NA,"Poorest","Kenya (Turkana County)_MICS5_Datasets"
"26",2,3,NA,1,2,8,NA,2,NA,1,"Rural","Turkana",NA,"Yes","No","8",NA,"No",NA,"Poorest","Kenya (Turkana County)_MICS5_Datasets"
"27",2,3,NA,1,2,2,NA,2,NA,1,"Rural","Turkana",NA,"Yes","No","2",NA,"No",NA,"Poorest","Kenya (Turkana County)_MICS5_Datasets"
"28",2,3,NA,1,2,13,NA,2,NA,1,"Rural","Turkana",NA,"Yes","No","13",NA,"No",NA,"Poorest","Kenya (Turkana County)_MICS5_Datasets"
"29",2,3,NA,1,2,2,NA,9,NA,2,"Rural","Turkana",NA,"Yes","No","2",NA,"Missing",NA,"Second","Kenya (Turkana County)_MICS5_Datasets"
"30",2,3,NA,1,2,8,NA,9,NA,2,"Rural","Turkana",NA,"Yes","No","8",NA,"Missing",NA,"Second","Kenya (Turkana County)_MICS5_Datasets"
"31",2,3,NA,1,2,12,NA,9,NA,2,"Rural","Turkana",NA,"Yes","No","12",NA,"Missing",NA,"Second","Kenya (Turkana County)_MICS5_Datasets"
"32",2,3,NA,1,2,6,NA,2,NA,4,"Rural","Turkana",NA,"Yes","No","6",NA,"No",NA,"Fourth","Kenya (Turkana County)_MICS5_Datasets"
"33",2,3,NA,1,2,15,NA,NA,NA,4,"Rural","Turkana",NA,"Yes","No","15",NA,NA,NA,"Fourth","Kenya (Turkana County)_MICS5_Datasets"
"34",2,3,NA,1,2,2,NA,2,NA,2,"Rural","Turkana",NA,"Yes","No","2",NA,"No",NA,"Second","Kenya (Turkana County)_MICS5_Datasets"
"35",2,3,NA,1,2,4,NA,2,NA,2,"Rural","Turkana",NA,"Yes","No","4",NA,"No",NA,"Second","Kenya (Turkana County)_MICS5_Datasets"
"36",2,3,NA,1,2,8,NA,2,NA,2,"Rural","Turkana",NA,"Yes","No","8",NA,"No",NA,"Second","Kenya (Turkana County)_MICS5_Datasets"
"37",2,3,NA,1,2,2,NA,2,NA,1,"Rural","Turkana",NA,"Yes","No","2",NA,"No",NA,"Poorest","Kenya (Turkana County)_MICS5_Datasets"
"38",2,3,NA,1,2,10,NA,2,NA,1,"Rural","Turkana",NA,"Yes","No","10",NA,"No",NA,"Poorest","Kenya (Turkana County)_MICS5_Datasets"
"39",2,3,NA,1,2,13,NA,2,NA,1,"Rural","Turkana",NA,"Yes","No","13",NA,"No",NA,"Poorest","Kenya (Turkana County)_MICS5_Datasets"
"40",2,3,NA,1,2,4,NA,9,NA,2,"Rural","Turkana",NA,"Yes","No","4",NA,"Missing",NA,"Second","Kenya (Turkana County)_MICS5_Datasets"
"41",2,3,NA,1,2,8,NA,9,NA,2,"Rural","Turkana",NA,"Yes","No","8",NA,"Missing",NA,"Second","Kenya (Turkana County)_MICS5_Datasets"
"42",2,3,NA,1,2,11,NA,9,NA,2,"Rural","Turkana",NA,"Yes","No","11",NA,"Missing",NA,"Second","Kenya (Turkana County)_MICS5_Datasets"
"43",2,3,NA,1,2,9,NA,2,NA,1,"Rural","Turkana",NA,"Yes","No","9",NA,"No",NA,"Poorest","Kenya (Turkana County)_MICS5_Datasets"
"44",2,3,NA,1,2,13,NA,2,NA,1,"Rural","Turkana",NA,"Yes","No","13",NA,"No",NA,"Poorest","Kenya (Turkana County)_MICS5_Datasets"
"45",2,3,NA,1,2,5,NA,2,NA,2,"Rural","Turkana",NA,"Yes","No","5",NA,"No",NA,"Second","Kenya (Turkana County)_MICS5_Datasets"
"46",2,3,NA,1,2,8,NA,2,NA,2,"Rural","Turkana",NA,"Yes","No","8",NA,"No",NA,"Second","Kenya (Turkana County)_MICS5_Datasets"
"47",2,3,NA,1,2,10,NA,2,NA,2,"Rural","Turkana",NA,"Yes","No","10",NA,"No",NA,"Second","Kenya (Turkana County)_MICS5_Datasets"
"48",2,3,NA,1,2,14,NA,2,NA,2,"Rural","Turkana",NA,"Yes","No","14",NA,"No",NA,"Second","Kenya (Turkana County)_MICS5_Datasets"
"49",2,3,NA,1,2,6,NA,9,NA,1,"Rural","Turkana",NA,"Yes","No","6",NA,"Missing",NA,"Poorest","Kenya (Turkana County)_MICS5_Datasets"
"50",2,3,NA,1,2,1,NA,2,NA,2,"Rural","Turkana",NA,"Yes","No","1",NA,"No",NA,"Second","Kenya (Turkana County)_MICS5_Datasets"
"51",2,3,NA,1,2,3,NA,2,NA,2,"Rural","Turkana",NA,"Yes","No","3",NA,"No",NA,"Second","Kenya (Turkana County)_MICS5_Datasets"
"52",2,3,NA,1,2,6,NA,2,NA,2,"Rural","Turkana",NA,"Yes","No","6",NA,"No",NA,"Second","Kenya (Turkana County)_MICS5_Datasets"
"53",2,3,NA,1,2,8,NA,2,NA,2,"Rural","Turkana",NA,"Yes","No","8",NA,"No",NA,"Second","Kenya (Turkana County)_MICS5_Datasets"
"54",2,3,NA,1,2,1,NA,2,NA,3,"Rural","Turkana",NA,"Yes","No","1",NA,"No",NA,"Middle","Kenya (Turkana County)_MICS5_Datasets"
"55",2,3,NA,1,2,3,NA,2,NA,3,"Rural","Turkana",NA,"Yes","No","3",NA,"No",NA,"Middle","Kenya (Turkana County)_MICS5_Datasets"
"56",2,3,NA,1,2,2,NA,2,NA,2,"Rural","Turkana",NA,"Yes","No","2",NA,"No",NA,"Second","Kenya (Turkana County)_MICS5_Datasets"
"57",2,3,NA,1,2,1,NA,2,NA,2,"Rural","Turkana",NA,"Yes","No","1",NA,"No",NA,"Second","Kenya (Turkana County)_MICS5_Datasets"
"58",2,3,NA,1,2,6,NA,2,NA,2,"Rural","Turkana",NA,"Yes","No","6",NA,"No",NA,"Second","Kenya (Turkana County)_MICS5_Datasets"
"59",2,3,NA,1,2,0,NA,2,NA,2,"Rural","Turkana",NA,"Yes","No","0",NA,"No",NA,"Second","Kenya (Turkana County)_MICS5_Datasets"
"60",2,3,NA,1,2,4,NA,2,NA,2,"Rural","Turkana",NA,"Yes","No","4",NA,"No",NA,"Second","Kenya (Turkana County)_MICS5_Datasets"
"61",2,3,NA,1,2,1,NA,2,NA,2,"Rural","Turkana",NA,"Yes","No","1",NA,"No",NA,"Second","Kenya (Turkana County)_MICS5_Datasets"
"62",2,3,NA,1,2,3,NA,2,NA,2,"Rural","Turkana",NA,"Yes","No","3",NA,"No",NA,"Second","Kenya (Turkana County)_MICS5_Datasets"
"63",2,3,NA,1,2,5,NA,2,NA,2,"Rural","Turkana",NA,"Yes","No","5",NA,"No",NA,"Second","Kenya (Turkana County)_MICS5_Datasets"
"64",2,3,NA,1,2,7,NA,2,NA,2,"Rural","Turkana",NA,"Yes","No","7",NA,"No",NA,"Second","Kenya (Turkana County)_MICS5_Datasets"
"65",2,3,NA,1,2,9,NA,2,NA,1,"Rural","Turkana",NA,"Yes","No","9",NA,"No",NA,"Poorest","Kenya (Turkana County)_MICS5_Datasets"
"66",2,3,NA,1,2,13,NA,2,NA,1,"Rural","Turkana",NA,"Yes","No","13",NA,"No",NA,"Poorest","Kenya (Turkana County)_MICS5_Datasets"
"67",2,3,NA,1,2,15,NA,NA,NA,1,"Rural","Turkana",NA,"Yes","No","15",NA,NA,NA,"Poorest","Kenya (Turkana County)_MICS5_Datasets"
"68",2,3,NA,1,2,11,NA,2,NA,2,"Rural","Turkana",NA,"Yes","No","11",NA,"No",NA,"Second","Kenya (Turkana County)_MICS5_Datasets"
"69",2,3,NA,2,2,4,NA,2,NA,2,"Rural","Turkana",NA,"No","No","4",NA,"No",NA,"Second","Kenya (Turkana County)_MICS5_Datasets"
"70",2,3,NA,1,2,13,NA,2,NA,3,"Rural","Turkana",NA,"Yes","No","13",NA,"No",NA,"Middle","Kenya (Turkana County)_MICS5_Datasets"
"71",2,3,NA,1,2,6,NA,2,NA,1,"Rural","Turkana",NA,"Yes","No","6",NA,"No",NA,"Poorest","Kenya (Turkana County)_MICS5_Datasets"
"72",2,3,NA,1,2,10,NA,2,NA,1,"Rural","Turkana",NA,"Yes","No","10",NA,"No",NA,"Poorest","Kenya (Turkana County)_MICS5_Datasets"
"73",2,3,NA,1,2,12,NA,2,NA,1,"Rural","Turkana",NA,"Yes","No","12",NA,"No",NA,"Poorest","Kenya (Turkana County)_MICS5_Datasets"
"74",2,3,NA,1,2,0,NA,2,NA,1,"Rural","Turkana",NA,"Yes","No","0",NA,"No",NA,"Poorest","Kenya (Turkana County)_MICS5_Datasets"
"75",2,3,NA,1,2,5,NA,2,NA,1,"Rural","Turkana",NA,"Yes","No","5",NA,"No",NA,"Poorest","Kenya (Turkana County)_MICS5_Datasets"
"76",2,3,NA,1,2,9,NA,2,NA,1,"Rural","Turkana",NA,"Yes","No","9",NA,"No",NA,"Poorest","Kenya (Turkana County)_MICS5_Datasets"
"77",2,3,NA,2,2,2,NA,2,NA,1,"Rural","Turkana",NA,"No","No","2",NA,"No",NA,"Poorest","Kenya (Turkana County)_MICS5_Datasets"
"78",2,3,NA,1,2,4,NA,2,NA,2,"Rural","Turkana",NA,"Yes","No","4",NA,"No",NA,"Second","Kenya (Turkana County)_MICS5_Datasets"
"79",2,3,NA,1,2,19,NA,NA,NA,2,"Rural","Turkana",NA,"Yes","No","19",NA,NA,NA,"Second","Kenya (Turkana County)_MICS5_Datasets"
"80",2,3,NA,1,2,1,NA,2,NA,3,"Rural","Turkana",NA,"Yes","No","1",NA,"No",NA,"Middle","Kenya (Turkana County)_MICS5_Datasets"
"81",2,3,NA,1,2,3,NA,2,NA,3,"Rural","Turkana",NA,"Yes","No","3",NA,"No",NA,"Middle","Kenya (Turkana County)_MICS5_Datasets"
"82",2,3,NA,1,2,8,NA,2,NA,3,"Rural","Turkana",NA,"Yes","No","8",NA,"No",NA,"Middle","Kenya (Turkana County)_MICS5_Datasets"
"83",2,3,NA,1,2,11,NA,2,NA,3,"Rural","Turkana",NA,"Yes","No","11",NA,"No",NA,"Middle","Kenya (Turkana County)_MICS5_Datasets"
"84",2,3,NA,1,2,0,NA,2,NA,2,"Rural","Turkana",NA,"Yes","No","0",NA,"No",NA,"Second","Kenya (Turkana County)_MICS5_Datasets"
"85",2,3,NA,1,2,6,NA,2,NA,2,"Rural","Turkana",NA,"Yes","No","6",NA,"No",NA,"Second","Kenya (Turkana County)_MICS5_Datasets"
"86",2,3,NA,1,2,19,NA,NA,NA,2,"Rural","Turkana",NA,"Yes","No","19",NA,NA,NA,"Second","Kenya (Turkana County)_MICS5_Datasets"
"87",2,3,NA,1,2,4,NA,2,NA,1,"Rural","Turkana",NA,"Yes","No","4",NA,"No",NA,"Poorest","Kenya (Turkana County)_MICS5_Datasets"
"88",2,3,NA,1,2,6,NA,2,NA,1,"Rural","Turkana",NA,"Yes","No","6",NA,"No",NA,"Poorest","Kenya (Turkana County)_MICS5_Datasets"
"89",2,3,NA,1,2,11,NA,2,NA,1,"Rural","Turkana",NA,"Yes","No","11",NA,"No",NA,"Poorest","Kenya (Turkana County)_MICS5_Datasets"
"90",2,3,NA,1,2,19,NA,NA,NA,1,"Rural","Turkana",NA,"Yes","No","19",NA,NA,NA,"Poorest","Kenya (Turkana County)_MICS5_Datasets"
"91",2,3,NA,1,2,10,NA,2,NA,5,"Rural","Turkana",NA,"Yes","No","10",NA,"No",NA,"Richest","Kenya (Turkana County)_MICS5_Datasets"
"92",2,3,NA,1,2,15,NA,NA,NA,5,"Rural","Turkana",NA,"Yes","No","15",NA,NA,NA,"Richest","Kenya (Turkana County)_MICS5_Datasets"
"93",2,3,NA,1,2,0,NA,2,NA,2,"Rural","Turkana",NA,"Yes","No","0",NA,"No",NA,"Second","Kenya (Turkana County)_MICS5_Datasets"
"94",2,3,NA,1,2,4,NA,2,NA,2,"Rural","Turkana",NA,"Yes","No","4",NA,"No",NA,"Second","Kenya (Turkana County)_MICS5_Datasets"
"95",2,3,NA,1,2,15,NA,NA,NA,3,"Rural","Turkana",NA,"Yes","No","15",NA,NA,NA,"Middle","Kenya (Turkana County)_MICS5_Datasets"
"96",2,3,NA,1,2,3,NA,2,NA,3,"Rural","Turkana",NA,"Yes","No","3",NA,"No",NA,"Middle","Kenya (Turkana County)_MICS5_Datasets"
"97",2,3,NA,1,2,6,NA,2,NA,3,"Rural","Turkana",NA,"Yes","No","6",NA,"No",NA,"Middle","Kenya (Turkana County)_MICS5_Datasets"
"98",2,3,NA,1,2,12,NA,2,NA,3,"Rural","Turkana",NA,"Yes","No","12",NA,"No",NA,"Middle","Kenya (Turkana County)_MICS5_Datasets"
"99",2,3,NA,1,2,17,NA,NA,NA,3,"Rural","Turkana",NA,"Yes","No","17",NA,NA,NA,"Middle","Kenya (Turkana County)_MICS5_Datasets"
"100",2,3,NA,1,2,24,NA,NA,NA,3,"Rural","Turkana",NA,"Yes","No","24",NA,NA,NA,"Middle","Kenya (Turkana County)_MICS5_Datasets"
"101",2,3,NA,1,2,1,NA,2,NA,3,"Rural","Turkana",NA,"Yes","No","1",NA,"No",NA,"Middle","Kenya (Turkana County)_MICS5_Datasets"
"102",2,3,NA,1,2,6,NA,2,NA,3,"Rural","Turkana",NA,"Yes","No","6",NA,"No",NA,"Middle","Kenya (Turkana County)_MICS5_Datasets"
"103",2,3,NA,1,2,12,NA,2,NA,3,"Rural","Turkana",NA,"Yes","No","12",NA,"No",NA,"Middle","Kenya (Turkana County)_MICS5_Datasets"
"104",2,3,NA,1,2,6,NA,2,NA,2,"Rural","Turkana",NA,"Yes","No","6",NA,"No",NA,"Second","Kenya (Turkana County)_MICS5_Datasets"
"105",2,3,NA,1,2,5,NA,2,NA,2,"Rural","Turkana",NA,"Yes","No","5",NA,"No",NA,"Second","Kenya (Turkana County)_MICS5_Datasets"
"106",2,3,NA,1,2,14,NA,2,NA,2,"Rural","Turkana",NA,"Yes","No","14",NA,"No",NA,"Second","Kenya (Turkana County)_MICS5_Datasets"
"107",2,3,NA,1,2,5,NA,2,NA,2,"Rural","Turkana",NA,"Yes","No","5",NA,"No",NA,"Second","Kenya (Turkana County)_MICS5_Datasets"
"108",1,3,NA,1,2,2,NA,2,NA,5,"Urban","Turkana",NA,"Yes","No","2",NA,"No",NA,"Richest","Kenya (Turkana County)_MICS5_Datasets"
"109",1,3,NA,1,2,4,NA,2,NA,5,"Urban","Turkana",NA,"Yes","No","4",NA,"No",NA,"Richest","Kenya (Turkana County)_MICS5_Datasets"
"110",1,3,NA,1,1,25,NA,NA,NA,5,"Urban","Turkana",NA,"Yes","Yes","25",NA,NA,NA,"Richest","Kenya (Turkana County)_MICS5_Datasets"
"111",1,3,NA,1,2,25,NA,NA,NA,5,"Urban","Turkana",NA,"Yes","No","25",NA,NA,NA,"Richest","Kenya (Turkana County)_MICS5_Datasets"
"112",1,3,NA,1,2,10,NA,2,NA,5,"Urban","Turkana",NA,"Yes","No","10",NA,"No",NA,"Richest","Kenya (Turkana County)_MICS5_Datasets"
"113",1,3,NA,1,2,0,NA,2,NA,5,"Urban","Turkana",NA,"Yes","No","0",NA,"No",NA,"Richest","Kenya (Turkana County)_MICS5_Datasets"
"114",1,3,NA,1,2,1,NA,2,NA,5,"Urban","Turkana",NA,"Yes","No","1",NA,"No",NA,"Richest","Kenya (Turkana County)_MICS5_Datasets"
"115",1,3,NA,1,2,6,NA,2,NA,5,"Urban","Turkana",NA,"Yes","No","6",NA,"No",NA,"Richest","Kenya (Turkana County)_MICS5_Datasets"
"116",1,3,NA,1,2,17,NA,NA,NA,3,"Urban","Turkana",NA,"Yes","No","17",NA,NA,NA,"Middle","Kenya (Turkana County)_MICS5_Datasets"
"117",1,3,NA,1,2,19,NA,NA,NA,3,"Urban","Turkana",NA,"Yes","No","19",NA,NA,NA,"Middle","Kenya (Turkana County)_MICS5_Datasets"
"118",1,3,NA,1,2,25,NA,NA,NA,3,"Urban","Turkana",NA,"Yes","No","25",NA,NA,NA,"Middle","Kenya (Turkana County)_MICS5_Datasets"
"119",1,3,NA,1,2,7,NA,2,NA,4,"Urban","Turkana",NA,"Yes","No","7",NA,"No",NA,"Fourth","Kenya (Turkana County)_MICS5_Datasets"
"120",1,3,NA,1,2,10,NA,2,NA,4,"Urban","Turkana",NA,"Yes","No","10",NA,"No",NA,"Fourth","Kenya (Turkana County)_MICS5_Datasets"
"121",1,3,NA,1,2,15,NA,NA,NA,4,"Urban","Turkana",NA,"Yes","No","15",NA,NA,NA,"Fourth","Kenya (Turkana County)_MICS5_Datasets"
"122",1,3,NA,1,2,1,NA,2,NA,4,"Urban","Turkana",NA,"Yes","No","1",NA,"No",NA,"Fourth","Kenya (Turkana County)_MICS5_Datasets"
"123",1,3,NA,1,2,4,NA,2,NA,4,"Urban","Turkana",NA,"Yes","No","4",NA,"No",NA,"Fourth","Kenya (Turkana County)_MICS5_Datasets"
"124",1,3,NA,1,2,13,NA,2,NA,4,"Urban","Turkana",NA,"Yes","No","13",NA,"No",NA,"Fourth","Kenya (Turkana County)_MICS5_Datasets"
"125",1,3,NA,1,2,16,NA,NA,NA,4,"Urban","Turkana",NA,"Yes","No","16",NA,NA,NA,"Fourth","Kenya (Turkana County)_MICS5_Datasets"
"126",1,3,NA,1,2,0,NA,2,NA,4,"Urban","Turkana",NA,"Yes","No","0",NA,"No",NA,"Fourth","Kenya (Turkana County)_MICS5_Datasets"
"127",1,3,NA,1,2,7,NA,2,NA,4,"Urban","Turkana",NA,"Yes","No","7",NA,"No",NA,"Fourth","Kenya (Turkana County)_MICS5_Datasets"
"128",1,3,NA,1,2,12,NA,2,NA,4,"Urban","Turkana",NA,"Yes","No","12",NA,"No",NA,"Fourth","Kenya (Turkana County)_MICS5_Datasets"
"129",1,3,NA,1,2,17,NA,NA,NA,4,"Urban","Turkana",NA,"Yes","No","17",NA,NA,NA,"Fourth","Kenya (Turkana County)_MICS5_Datasets"
"130",1,3,NA,2,2,4,NA,2,NA,3,"Urban","Turkana",NA,"No","No","4",NA,"No",NA,"Middle","Kenya (Turkana County)_MICS5_Datasets"
"131",1,3,NA,2,2,7,NA,2,NA,3,"Urban","Turkana",NA,"No","No","7",NA,"No",NA,"Middle","Kenya (Turkana County)_MICS5_Datasets"
"132",1,3,NA,2,2,10,NA,2,NA,3,"Urban","Turkana",NA,"No","No","10",NA,"No",NA,"Middle","Kenya (Turkana County)_MICS5_Datasets"
"133",1,3,NA,2,2,4,NA,2,NA,4,"Urban","Turkana",NA,"No","No","4",NA,"No",NA,"Fourth","Kenya (Turkana County)_MICS5_Datasets"
"134",1,3,NA,2,2,6,NA,2,NA,4,"Urban","Turkana",NA,"No","No","6",NA,"No",NA,"Fourth","Kenya (Turkana County)_MICS5_Datasets"
"135",1,3,NA,2,2,10,NA,2,NA,4,"Urban","Turkana",NA,"No","No","10",NA,"No",NA,"Fourth","Kenya (Turkana County)_MICS5_Datasets"
"136",1,3,NA,2,2,12,NA,2,NA,4,"Urban","Turkana",NA,"No","No","12",NA,"No",NA,"Fourth","Kenya (Turkana County)_MICS5_Datasets"
"137",1,3,NA,1,2,3,NA,2,NA,5,"Urban","Turkana",NA,"Yes","No","3",NA,"No",NA,"Richest","Kenya (Turkana County)_MICS5_Datasets"
"138",1,3,NA,1,2,6,NA,2,NA,5,"Urban","Turkana",NA,"Yes","No","6",NA,"No",NA,"Richest","Kenya (Turkana County)_MICS5_Datasets"
"139",1,3,NA,1,2,11,NA,2,NA,5,"Urban","Turkana",NA,"Yes","No","11",NA,"No",NA,"Richest","Kenya (Turkana County)_MICS5_Datasets"
"140",1,3,NA,1,2,15,NA,NA,NA,5,"Urban","Turkana",NA,"Yes","No","15",NA,NA,NA,"Richest","Kenya (Turkana County)_MICS5_Datasets"
"141",1,3,NA,1,2,5,NA,2,NA,4,"Urban","Turkana",NA,"Yes","No","5",NA,"No",NA,"Fourth","Kenya (Turkana County)_MICS5_Datasets"
"142",1,3,NA,1,2,7,NA,2,NA,4,"Urban","Turkana",NA,"Yes","No","7",NA,"No",NA,"Fourth","Kenya (Turkana County)_MICS5_Datasets"
"143",1,3,NA,1,2,8,NA,2,NA,4,"Urban","Turkana",NA,"Yes","No","8",NA,"No",NA,"Fourth","Kenya (Turkana County)_MICS5_Datasets"
"144",1,3,NA,1,2,10,NA,2,NA,4,"Urban","Turkana",NA,"Yes","No","10",NA,"No",NA,"Fourth","Kenya (Turkana County)_MICS5_Datasets"
"145",1,3,NA,1,2,5,NA,2,NA,3,"Urban","Turkana",NA,"Yes","No","5",NA,"No",NA,"Middle","Kenya (Turkana County)_MICS5_Datasets"
"146",1,3,NA,1,2,1,NA,2,NA,5,"Urban","Turkana",NA,"Yes","No","1",NA,"No",NA,"Richest","Kenya (Turkana County)_MICS5_Datasets"
"147",1,3,NA,1,2,0,NA,2,NA,5,"Urban","Turkana",NA,"Yes","No","0",NA,"No",NA,"Richest","Kenya (Turkana County)_MICS5_Datasets"
"148",1,3,NA,1,2,12,NA,2,NA,5,"Urban","Turkana",NA,"Yes","No","12",NA,"No",NA,"Richest","Kenya (Turkana County)_MICS5_Datasets"
"149",1,3,NA,1,2,2,NA,2,NA,5,"Urban","Turkana",NA,"Yes","No","2",NA,"No",NA,"Richest","Kenya (Turkana County)_MICS5_Datasets"
"150",1,3,NA,1,2,8,NA,2,NA,5,"Urban","Turkana",NA,"Yes","No","8",NA,"No",NA,"Richest","Kenya (Turkana County)_MICS5_Datasets"
"151",1,3,NA,1,2,14,NA,2,NA,5,"Urban","Turkana",NA,"Yes","No","14",NA,"No",NA,"Richest","Kenya (Turkana County)_MICS5_Datasets"
"152",1,3,NA,1,2,14,NA,2,NA,3,"Urban","Turkana",NA,"Yes","No","14",NA,"No",NA,"Middle","Kenya (Turkana County)_MICS5_Datasets"
"153",1,3,NA,1,2,25,NA,NA,NA,3,"Urban","Turkana",NA,"Yes","No","25",NA,NA,NA,"Middle","Kenya (Turkana County)_MICS5_Datasets"
"154",1,3,NA,1,2,12,NA,2,NA,5,"Urban","Turkana",NA,"Yes","No","12",NA,"No",NA,"Richest","Kenya (Turkana County)_MICS5_Datasets"
"155",1,3,NA,1,2,11,NA,2,NA,4,"Urban","Turkana",NA,"Yes","No","11",NA,"No",NA,"Fourth","Kenya (Turkana County)_MICS5_Datasets"
"156",1,3,NA,1,2,16,NA,NA,NA,4,"Urban","Turkana",NA,"Yes","No","16",NA,NA,NA,"Fourth","Kenya (Turkana County)_MICS5_Datasets"
"157",1,3,NA,1,2,19,NA,NA,NA,4,"Urban","Turkana",NA,"Yes","No","19",NA,NA,NA,"Fourth","Kenya (Turkana County)_MICS5_Datasets"
"158",1,3,NA,1,2,22,NA,NA,NA,4,"Urban","Turkana",NA,"Yes","No","22",NA,NA,NA,"Fourth","Kenya (Turkana County)_MICS5_Datasets"
"159",1,3,NA,1,2,1,NA,2,NA,5,"Urban","Turkana",NA,"Yes","No","1",NA,"No",NA,"Richest","Kenya (Turkana County)_MICS5_Datasets"
"160",1,3,NA,1,2,3,NA,2,NA,5,"Urban","Turkana",NA,"Yes","No","3",NA,"No",NA,"Richest","Kenya (Turkana County)_MICS5_Datasets"
"161",1,3,NA,1,2,5,NA,2,NA,5,"Urban","Turkana",NA,"Yes","No","5",NA,"No",NA,"Richest","Kenya (Turkana County)_MICS5_Datasets"
"162",1,3,NA,1,2,14,NA,2,NA,3,"Urban","Turkana",NA,"Yes","No","14",NA,"No",NA,"Middle","Kenya (Turkana County)_MICS5_Datasets"
"163",1,3,NA,2,2,6,NA,2,NA,5,"Urban","Turkana",NA,"No","No","6",NA,"No",NA,"Richest","Kenya (Turkana County)_MICS5_Datasets"
"164",1,3,NA,1,2,5,NA,2,NA,5,"Urban","Turkana",NA,"Yes","No","5",NA,"No",NA,"Richest","Kenya (Turkana County)_MICS5_Datasets"
"165",1,3,NA,1,2,0,NA,2,NA,4,"Urban","Turkana",NA,"Yes","No","0",NA,"No",NA,"Fourth","Kenya (Turkana County)_MICS5_Datasets"
"166",1,3,NA,1,2,8,NA,2,NA,5,"Urban","Turkana",NA,"Yes","No","8",NA,"No",NA,"Richest","Kenya (Turkana County)_MICS5_Datasets"
"167",1,3,NA,1,2,10,NA,2,NA,5,"Urban","Turkana",NA,"Yes","No","10",NA,"No",NA,"Richest","Kenya (Turkana County)_MICS5_Datasets"
"168",1,3,NA,1,2,13,NA,2,NA,5,"Urban","Turkana",NA,"Yes","No","13",NA,"No",NA,"Richest","Kenya (Turkana County)_MICS5_Datasets"
"169",1,3,NA,1,2,2,NA,2,NA,4,"Urban","Turkana",NA,"Yes","No","2",NA,"No",NA,"Fourth","Kenya (Turkana County)_MICS5_Datasets"
"170",1,3,NA,1,2,13,NA,2,NA,4,"Urban","Turkana",NA,"Yes","No","13",NA,"No",NA,"Fourth","Kenya (Turkana County)_MICS5_Datasets"
"171",1,3,NA,2,2,4,NA,2,NA,3,"Urban","Turkana",NA,"No","No","4",NA,"No",NA,"Middle","Kenya (Turkana County)_MICS5_Datasets"
"172",1,3,NA,2,2,8,NA,2,NA,3,"Urban","Turkana",NA,"No","No","8",NA,"No",NA,"Middle","Kenya (Turkana County)_MICS5_Datasets"
"173",1,3,NA,2,2,11,NA,2,NA,3,"Urban","Turkana",NA,"No","No","11",NA,"No",NA,"Middle","Kenya (Turkana County)_MICS5_Datasets"
"174",1,3,NA,2,2,16,NA,NA,NA,3,"Urban","Turkana",NA,"No","No","16",NA,NA,NA,"Middle","Kenya (Turkana County)_MICS5_Datasets"
"175",1,3,NA,2,2,18,NA,NA,NA,3,"Urban","Turkana",NA,"No","No","18",NA,NA,NA,"Middle","Kenya (Turkana County)_MICS5_Datasets"
"176",1,3,NA,1,2,0,NA,2,NA,4,"Urban","Turkana",NA,"Yes","No","0",NA,"No",NA,"Fourth","Kenya (Turkana County)_MICS5_Datasets"
"177",1,3,NA,1,2,2,NA,2,NA,4,"Urban","Turkana",NA,"Yes","No","2",NA,"No",NA,"Fourth","Kenya (Turkana County)_MICS5_Datasets"
"178",1,3,NA,1,2,6,NA,2,NA,4,"Urban","Turkana",NA,"Yes","No","6",NA,"No",NA,"Fourth","Kenya (Turkana County)_MICS5_Datasets"
"179",1,3,NA,1,2,12,NA,2,NA,4,"Urban","Turkana",NA,"Yes","No","12",NA,"No",NA,"Fourth","Kenya (Turkana County)_MICS5_Datasets"
"180",1,3,NA,1,2,13,NA,2,NA,4,"Urban","Turkana",NA,"Yes","No","13",NA,"No",NA,"Fourth","Kenya (Turkana County)_MICS5_Datasets"
"181",1,3,NA,1,2,17,NA,NA,NA,4,"Urban","Turkana",NA,"Yes","No","17",NA,NA,NA,"Fourth","Kenya (Turkana County)_MICS5_Datasets"
"182",1,3,NA,1,2,21,NA,NA,NA,4,"Urban","Turkana",NA,"Yes","No","21",NA,NA,NA,"Fourth","Kenya (Turkana County)_MICS5_Datasets"
"183",1,3,NA,1,2,22,NA,NA,NA,4,"Urban","Turkana",NA,"Yes","No","22",NA,NA,NA,"Fourth","Kenya (Turkana County)_MICS5_Datasets"
"184",1,3,NA,1,2,0,NA,2,NA,4,"Urban","Turkana",NA,"Yes","No","0",NA,"No",NA,"Fourth","Kenya (Turkana County)_MICS5_Datasets"
"185",1,3,NA,1,2,2,NA,9,NA,4,"Urban","Turkana",NA,"Yes","No","2",NA,"Missing",NA,"Fourth","Kenya (Turkana County)_MICS5_Datasets"
"186",1,3,NA,1,2,4,NA,9,NA,4,"Urban","Turkana",NA,"Yes","No","4",NA,"Missing",NA,"Fourth","Kenya (Turkana County)_MICS5_Datasets"
"187",1,3,NA,1,2,15,NA,NA,NA,3,"Urban","Turkana",NA,"Yes","No","15",NA,NA,NA,"Middle","Kenya (Turkana County)_MICS5_Datasets"
"188",1,3,NA,1,2,21,NA,NA,NA,3,"Urban","Turkana",NA,"Yes","No","21",NA,NA,NA,"Middle","Kenya (Turkana County)_MICS5_Datasets"
"189",1,3,NA,1,2,0,NA,2,NA,3,"Urban","Turkana",NA,"Yes","No","0",NA,"No",NA,"Middle","Kenya (Turkana County)_MICS5_Datasets"
"190",1,3,NA,1,2,5,NA,2,NA,3,"Urban","Turkana",NA,"Yes","No","5",NA,"No",NA,"Middle","Kenya (Turkana County)_MICS5_Datasets"
"191",1,3,NA,1,2,12,NA,2,NA,3,"Urban","Turkana",NA,"Yes","No","12",NA,"No",NA,"Middle","Kenya (Turkana County)_MICS5_Datasets"
"192",1,3,NA,1,2,3,NA,2,NA,4,"Urban","Turkana",NA,"Yes","No","3",NA,"No",NA,"Fourth","Kenya (Turkana County)_MICS5_Datasets"
"193",1,3,NA,1,2,7,NA,2,NA,4,"Urban","Turkana",NA,"Yes","No","7",NA,"No",NA,"Fourth","Kenya (Turkana County)_MICS5_Datasets"
"194",1,3,NA,1,2,8,NA,2,NA,4,"Urban","Turkana",NA,"Yes","No","8",NA,"No",NA,"Fourth","Kenya (Turkana County)_MICS5_Datasets"
"195",1,3,NA,1,2,16,NA,NA,NA,4,"Urban","Turkana",NA,"Yes","No","16",NA,NA,NA,"Fourth","Kenya (Turkana County)_MICS5_Datasets"
"196",1,3,NA,1,2,1,NA,2,NA,3,"Urban","Turkana",NA,"Yes","No","1",NA,"No",NA,"Middle","Kenya (Turkana County)_MICS5_Datasets"
"197",1,3,NA,1,2,0,NA,2,NA,3,"Urban","Turkana",NA,"Yes","No","0",NA,"No",NA,"Middle","Kenya (Turkana County)_MICS5_Datasets"
"198",1,3,NA,1,2,6,NA,2,NA,3,"Urban","Turkana",NA,"Yes","No","6",NA,"No",NA,"Middle","Kenya (Turkana County)_MICS5_Datasets"
"199",1,3,NA,1,2,9,NA,2,NA,3,"Urban","Turkana",NA,"Yes","No","9",NA,"No",NA,"Middle","Kenya (Turkana County)_MICS5_Datasets"
"200",1,3,NA,1,2,12,NA,2,NA,3,"Urban","Turkana",NA,"Yes","No","12",NA,"No",NA,"Middle","Kenya (Turkana County)_MICS5_Datasets"
"201",1,3,NA,1,2,1,NA,2,NA,5,"Urban","Turkana",NA,"Yes","No","1",NA,"No",NA,"Richest","Kenya (Turkana County)_MICS5_Datasets"
"202",1,3,NA,1,2,5,NA,2,NA,5,"Urban","Turkana",NA,"Yes","No","5",NA,"No",NA,"Richest","Kenya (Turkana County)_MICS5_Datasets"
"203",1,3,NA,1,2,11,NA,2,NA,5,"Urban","Turkana",NA,"Yes","No","11",NA,"No",NA,"Richest","Kenya (Turkana County)_MICS5_Datasets"
"204",1,3,NA,1,2,16,NA,NA,NA,5,"Urban","Turkana",NA,"Yes","No","16",NA,NA,NA,"Richest","Kenya (Turkana County)_MICS5_Datasets"
"205",1,3,NA,2,2,2,NA,2,NA,5,"Urban","Turkana",NA,"No","No","2",NA,"No",NA,"Richest","Kenya (Turkana County)_MICS5_Datasets"
"206",1,3,NA,1,2,0,NA,2,NA,4,"Urban","Turkana",NA,"Yes","No","0",NA,"No",NA,"Fourth","Kenya (Turkana County)_MICS5_Datasets"
"207",1,3,NA,1,2,2,NA,2,NA,4,"Urban","Turkana",NA,"Yes","No","2",NA,"No",NA,"Fourth","Kenya (Turkana County)_MICS5_Datasets"
"208",1,3,NA,1,2,10,NA,2,NA,4,"Urban","Turkana",NA,"Yes","No","10",NA,"No",NA,"Fourth","Kenya (Turkana County)_MICS5_Datasets"
"209",1,3,NA,1,2,15,NA,NA,NA,4,"Urban","Turkana",NA,"Yes","No","15",NA,NA,NA,"Fourth","Kenya (Turkana County)_MICS5_Datasets"
"210",1,3,NA,1,2,21,NA,NA,NA,4,"Urban","Turkana",NA,"Yes","No","21",NA,NA,NA,"Fourth","Kenya (Turkana County)_MICS5_Datasets"
"211",1,3,NA,1,2,26,NA,NA,NA,4,"Urban","Turkana",NA,"Yes","No","26",NA,NA,NA,"Fourth","Kenya (Turkana County)_MICS5_Datasets"
"212",1,3,NA,1,2,0,NA,2,NA,3,"Urban","Turkana",NA,"Yes","No","0",NA,"No",NA,"Middle","Kenya (Turkana County)_MICS5_Datasets"
"213",1,3,NA,1,2,0,NA,9,NA,5,"Urban","Turkana",NA,"Yes","No","0",NA,"Missing",NA,"Richest","Kenya (Turkana County)_MICS5_Datasets"
"214",1,3,NA,1,2,4,NA,9,NA,5,"Urban","Turkana",NA,"Yes","No","4",NA,"Missing",NA,"Richest","Kenya (Turkana County)_MICS5_Datasets"
"215",1,3,NA,1,2,20,NA,NA,NA,4,"Urban","Turkana",NA,"Yes","No","20",NA,NA,NA,"Fourth","Kenya (Turkana County)_MICS5_Datasets"
"216",1,3,NA,1,2,30,NA,NA,NA,4,"Urban","Turkana",NA,"Yes","No","30",NA,NA,NA,"Fourth","Kenya (Turkana County)_MICS5_Datasets"
"217",1,3,NA,1,2,8,NA,2,NA,3,"Urban","Turkana",NA,"Yes","No","8",NA,"No",NA,"Middle","Kenya (Turkana County)_MICS5_Datasets"
"218",1,3,NA,1,2,12,NA,2,NA,4,"Urban","Turkana",NA,"Yes","No","12",NA,"No",NA,"Fourth","Kenya (Turkana County)_MICS5_Datasets"
"219",1,3,NA,1,2,13,NA,2,NA,4,"Urban","Turkana",NA,"Yes","No","13",NA,"No",NA,"Fourth","Kenya (Turkana County)_MICS5_Datasets"
"220",1,3,NA,1,2,17,NA,NA,NA,4,"Urban","Turkana",NA,"Yes","No","17",NA,NA,NA,"Fourth","Kenya (Turkana County)_MICS5_Datasets"
"221",1,3,NA,1,2,2,NA,2,NA,2,"Urban","Turkana",NA,"Yes","No","2",NA,"No",NA,"Second","Kenya (Turkana County)_MICS5_Datasets"
"222",1,3,NA,1,1,5,NA,2,NA,5,"Urban","Turkana",NA,"Yes","Yes","5",NA,"No",NA,"Richest","Kenya (Turkana County)_MICS5_Datasets"
"223",1,3,NA,2,2,15,NA,NA,NA,5,"Urban","Turkana",NA,"No","No","15",NA,NA,NA,"Richest","Kenya (Turkana County)_MICS5_Datasets"
"224",1,3,NA,2,2,18,NA,NA,NA,5,"Urban","Turkana",NA,"No","No","18",NA,NA,NA,"Richest","Kenya (Turkana County)_MICS5_Datasets"
"225",1,3,NA,2,2,22,NA,NA,NA,5,"Urban","Turkana",NA,"No","No","22",NA,NA,NA,"Richest","Kenya (Turkana County)_MICS5_Datasets"
"226",2,3,NA,1,2,5,NA,2,NA,2,"Rural","Turkana",NA,"Yes","No","5",NA,"No",NA,"Second","Kenya (Turkana County)_MICS5_Datasets"
"227",2,3,NA,1,2,10,NA,2,NA,2,"Rural","Turkana",NA,"Yes","No","10",NA,"No",NA,"Second","Kenya (Turkana County)_MICS5_Datasets"
"228",2,3,NA,1,2,5,NA,2,NA,2,"Rural","Turkana",NA,"Yes","No","5",NA,"No",NA,"Second","Kenya (Turkana County)_MICS5_Datasets"
"229",2,3,NA,1,2,9,NA,2,NA,2,"Rural","Turkana",NA,"Yes","No","9",NA,"No",NA,"Second","Kenya (Turkana County)_MICS5_Datasets"
"230",2,3,NA,1,2,12,NA,2,NA,2,"Rural","Turkana",NA,"Yes","No","12",NA,"No",NA,"Second","Kenya (Turkana County)_MICS5_Datasets"
"231",2,3,NA,1,2,2,NA,2,NA,2,"Rural","Turkana",NA,"Yes","No","2",NA,"No",NA,"Second","Kenya (Turkana County)_MICS5_Datasets"
"232",2,3,NA,1,2,8,NA,2,NA,2,"Rural","Turkana",NA,"Yes","No","8",NA,"No",NA,"Second","Kenya (Turkana County)_MICS5_Datasets"
"233",2,3,NA,2,2,2,NA,2,NA,2,"Rural","Turkana",NA,"No","No","2",NA,"No",NA,"Second","Kenya (Turkana County)_MICS5_Datasets"
"234",2,3,NA,1,2,11,NA,2,NA,1,"Rural","Turkana",NA,"Yes","No","11",NA,"No",NA,"Poorest","Kenya (Turkana County)_MICS5_Datasets"
"235",2,3,NA,1,2,1,NA,9,NA,1,"Rural","Turkana",NA,"Yes","No","1",NA,"Missing",NA,"Poorest","Kenya (Turkana County)_MICS5_Datasets"
"236",2,3,NA,1,2,1,NA,2,NA,1,"Rural","Turkana",NA,"Yes","No","1",NA,"No",NA,"Poorest","Kenya (Turkana County)_MICS5_Datasets"
"237",2,3,NA,1,2,3,NA,2,NA,1,"Rural","Turkana",NA,"Yes","No","3",NA,"No",NA,"Poorest","Kenya (Turkana County)_MICS5_Datasets"
"238",2,3,NA,1,2,13,NA,2,NA,1,"Rural","Turkana",NA,"Yes","No","13",NA,"No",NA,"Poorest","Kenya (Turkana County)_MICS5_Datasets"
"239",2,3,NA,1,2,1,NA,9,NA,1,"Rural","Turkana",NA,"Yes","No","1",NA,"Missing",NA,"Poorest","Kenya (Turkana County)_MICS5_Datasets"
"240",2,3,NA,1,2,6,NA,9,NA,1,"Rural","Turkana",NA,"Yes","No","6",NA,"Missing",NA,"Poorest","Kenya (Turkana County)_MICS5_Datasets"
"241",2,3,NA,1,2,1,NA,2,NA,2,"Rural","Turkana",NA,"Yes","No","1",NA,"No",NA,"Second","Kenya (Turkana County)_MICS5_Datasets"
"242",2,3,NA,1,2,3,NA,2,NA,2,"Rural","Turkana",NA,"Yes","No","3",NA,"No",NA,"Second","Kenya (Turkana County)_MICS5_Datasets"
"243",2,3,NA,1,2,12,NA,2,NA,2,"Rural","Turkana",NA,"Yes","No","12",NA,"No",NA,"Second","Kenya (Turkana County)_MICS5_Datasets"
"244",2,3,NA,1,2,5,NA,2,NA,3,"Rural","Turkana",NA,"Yes","No","5",NA,"No",NA,"Middle","Kenya (Turkana County)_MICS5_Datasets"
"245",2,3,NA,1,2,8,NA,2,NA,3,"Rural","Turkana",NA,"Yes","No","8",NA,"No",NA,"Middle","Kenya (Turkana County)_MICS5_Datasets"
"246",2,3,NA,1,2,1,NA,2,NA,3,"Rural","Turkana",NA,"Yes","No","1",NA,"No",NA,"Middle","Kenya (Turkana County)_MICS5_Datasets"
"247",2,3,NA,1,2,9,NA,2,NA,2,"Rural","Turkana",NA,"Yes","No","9",NA,"No",NA,"Second","Kenya (Turkana County)_MICS5_Datasets"
"248",2,3,NA,1,2,19,NA,NA,NA,2,"Rural","Turkana",NA,"Yes","No","19",NA,NA,NA,"Second","Kenya (Turkana County)_MICS5_Datasets"
"249",2,3,NA,1,2,21,NA,NA,NA,2,"Rural","Turkana",NA,"Yes","No","21",NA,NA,NA,"Second","Kenya (Turkana County)_MICS5_Datasets"
"250",2,3,NA,1,2,0,NA,2,NA,2,"Rural","Turkana",NA,"Yes","No","0",NA,"No",NA,"Second","Kenya (Turkana County)_MICS5_Datasets"
"251",2,3,NA,1,2,8,NA,2,NA,2,"Rural","Turkana",NA,"Yes","No","8",NA,"No",NA,"Second","Kenya (Turkana County)_MICS5_Datasets"
"252",2,3,NA,1,2,9,NA,2,NA,2,"Rural","Turkana",NA,"Yes","No","9",NA,"No",NA,"Second","Kenya (Turkana County)_MICS5_Datasets"
"253",2,3,NA,1,2,10,NA,2,NA,2,"Rural","Turkana",NA,"Yes","No","10",NA,"No",NA,"Second","Kenya (Turkana County)_MICS5_Datasets"
"254",2,3,NA,1,2,12,NA,2,NA,2,"Rural","Turkana",NA,"Yes","No","12",NA,"No",NA,"Second","Kenya (Turkana County)_MICS5_Datasets"
"255",2,3,NA,1,2,21,NA,NA,NA,2,"Rural","Turkana",NA,"Yes","No","21",NA,NA,NA,"Second","Kenya (Turkana County)_MICS5_Datasets"
"256",2,3,NA,1,2,23,NA,NA,NA,2,"Rural","Turkana",NA,"Yes","No","23",NA,NA,NA,"Second","Kenya (Turkana County)_MICS5_Datasets"
"257",2,3,NA,1,2,26,NA,NA,NA,2,"Rural","Turkana",NA,"Yes","No","26",NA,NA,NA,"Second","Kenya (Turkana County)_MICS5_Datasets"
"258",2,3,NA,1,2,1,NA,2,NA,2,"Rural","Turkana",NA,"Yes","No","1",NA,"No",NA,"Second","Kenya (Turkana County)_MICS5_Datasets"
"259",2,3,NA,1,2,2,NA,9,NA,2,"Rural","Turkana",NA,"Yes","No","2",NA,"Missing",NA,"Second","Kenya (Turkana County)_MICS5_Datasets"
"260",2,3,NA,1,2,6,NA,9,NA,2,"Rural","Turkana",NA,"Yes","No","6",NA,"Missing",NA,"Second","Kenya (Turkana County)_MICS5_Datasets"
"261",2,3,NA,1,2,10,NA,9,NA,2,"Rural","Turkana",NA,"Yes","No","10",NA,"Missing",NA,"Second","Kenya (Turkana County)_MICS5_Datasets"
"262",2,3,NA,1,2,0,NA,9,NA,3,"Rural","Turkana",NA,"Yes","No","0",NA,"Missing",NA,"Middle","Kenya (Turkana County)_MICS5_Datasets"
"263",2,3,NA,1,2,4,NA,2,NA,2,"Rural","Turkana",NA,"Yes","No","4",NA,"No",NA,"Second","Kenya (Turkana County)_MICS5_Datasets"
"264",2,3,NA,1,2,6,NA,2,NA,2,"Rural","Turkana",NA,"Yes","No","6",NA,"No",NA,"Second","Kenya (Turkana County)_MICS5_Datasets"
"265",2,3,NA,1,2,1,NA,9,NA,2,"Rural","Turkana",NA,"Yes","No","1",NA,"Missing",NA,"Second","Kenya (Turkana County)_MICS5_Datasets"
"266",2,3,NA,1,2,12,NA,2,NA,1,"Rural","Turkana",NA,"Yes","No","12",NA,"No",NA,"Poorest","Kenya (Turkana County)_MICS5_Datasets"
"267",2,3,NA,1,2,14,NA,2,NA,1,"Rural","Turkana",NA,"Yes","No","14",NA,"No",NA,"Poorest","Kenya (Turkana County)_MICS5_Datasets"
"268",2,3,NA,1,2,1,NA,2,NA,3,"Rural","Turkana",NA,"Yes","No","1",NA,"No",NA,"Middle","Kenya (Turkana County)_MICS5_Datasets"
"269",2,3,NA,1,2,0,NA,2,NA,1,"Rural","Turkana",NA,"Yes","No","0",NA,"No",NA,"Poorest","Kenya (Turkana County)_MICS5_Datasets"
"270",2,3,NA,1,2,4,NA,2,NA,1,"Rural","Turkana",NA,"Yes","No","4",NA,"No",NA,"Poorest","Kenya (Turkana County)_MICS5_Datasets"
"271",2,3,NA,1,2,9,NA,2,NA,1,"Rural","Turkana",NA,"Yes","No","9",NA,"No",NA,"Poorest","Kenya (Turkana County)_MICS5_Datasets"
"272",2,3,NA,1,2,13,NA,2,NA,1,"Rural","Turkana",NA,"Yes","No","13",NA,"No",NA,"Poorest","Kenya (Turkana County)_MICS5_Datasets"
"273",2,3,NA,1,2,15,NA,NA,NA,1,"Rural","Turkana",NA,"Yes","No","15",NA,NA,NA,"Poorest","Kenya (Turkana County)_MICS5_Datasets"
"274",2,3,NA,1,1,5,NA,2,NA,4,"Rural","Turkana",NA,"Yes","Yes","5",NA,"No",NA,"Fourth","Kenya (Turkana County)_MICS5_Datasets"
"275",2,3,NA,1,2,3,NA,2,NA,4,"Rural","Turkana",NA,"Yes","No","3",NA,"No",NA,"Fourth","Kenya (Turkana County)_MICS5_Datasets"
"276",2,3,NA,1,2,3,NA,2,NA,4,"Rural","Turkana",NA,"Yes","No","3",NA,"No",NA,"Fourth","Kenya (Turkana County)_MICS5_Datasets"
"277",2,3,NA,1,2,6,NA,2,NA,4,"Rural","Turkana",NA,"Yes","No","6",NA,"No",NA,"Fourth","Kenya (Turkana County)_MICS5_Datasets"
"278",2,3,NA,1,2,14,NA,2,NA,4,"Rural","Turkana",NA,"Yes","No","14",NA,"No",NA,"Fourth","Kenya (Turkana County)_MICS5_Datasets"
"279",2,3,NA,1,2,4,NA,9,NA,3,"Rural","Turkana",NA,"Yes","No","4",NA,"Missing",NA,"Middle","Kenya (Turkana County)_MICS5_Datasets"
"280",2,3,NA,1,2,4,NA,9,NA,3,"Rural","Turkana",NA,"Yes","No","4",NA,"Missing",NA,"Middle","Kenya (Turkana County)_MICS5_Datasets"
"281",2,3,NA,1,2,4,NA,9,NA,4,"Rural","Turkana",NA,"Yes","No","4",NA,"Missing",NA,"Fourth","Kenya (Turkana County)_MICS5_Datasets"
"282",2,3,NA,1,2,12,NA,9,NA,4,"Rural","Turkana",NA,"Yes","No","12",NA,"Missing",NA,"Fourth","Kenya (Turkana County)_MICS5_Datasets"
"283",2,3,NA,1,2,4,NA,2,NA,1,"Rural","Turkana",NA,"Yes","No","4",NA,"No",NA,"Poorest","Kenya (Turkana County)_MICS5_Datasets"
"284",2,3,NA,1,2,7,NA,2,NA,1,"Rural","Turkana",NA,"Yes","No","7",NA,"No",NA,"Poorest","Kenya (Turkana County)_MICS5_Datasets"
"285",2,3,NA,1,2,13,NA,2,NA,1,"Rural","Turkana",NA,"Yes","No","13",NA,"No",NA,"Poorest","Kenya (Turkana County)_MICS5_Datasets"
"286",2,3,NA,1,2,15,NA,NA,NA,1,"Rural","Turkana",NA,"Yes","No","15",NA,NA,NA,"Poorest","Kenya (Turkana County)_MICS5_Datasets"
"287",2,3,NA,1,2,3,NA,2,NA,1,"Rural","Turkana",NA,"Yes","No","3",NA,"No",NA,"Poorest","Kenya (Turkana County)_MICS5_Datasets"
"288",2,3,NA,1,2,6,NA,2,NA,1,"Rural","Turkana",NA,"Yes","No","6",NA,"No",NA,"Poorest","Kenya (Turkana County)_MICS5_Datasets"
"289",2,3,NA,1,2,9,NA,2,NA,1,"Rural","Turkana",NA,"Yes","No","9",NA,"No",NA,"Poorest","Kenya (Turkana County)_MICS5_Datasets"
"290",2,3,NA,2,2,1,NA,2,NA,2,"Rural","Turkana",NA,"No","No","1",NA,"No",NA,"Second","Kenya (Turkana County)_MICS5_Datasets"
"291",2,3,NA,1,2,19,NA,NA,NA,2,"Rural","Turkana",NA,"Yes","No","19",NA,NA,NA,"Second","Kenya (Turkana County)_MICS5_Datasets"
"292",2,3,NA,1,2,23,NA,NA,NA,2,"Rural","Turkana",NA,"Yes","No","23",NA,NA,NA,"Second","Kenya (Turkana County)_MICS5_Datasets"
"293",2,3,NA,1,2,35,NA,NA,NA,2,"Rural","Turkana",NA,"Yes","No","35",NA,NA,NA,"Second","Kenya (Turkana County)_MICS5_Datasets"
"294",2,3,NA,1,2,2,NA,2,NA,2,"Rural","Turkana",NA,"Yes","No","2",NA,"No",NA,"Second","Kenya (Turkana County)_MICS5_Datasets"
"295",2,3,NA,1,2,8,NA,2,NA,2,"Rural","Turkana",NA,"Yes","No","8",NA,"No",NA,"Second","Kenya (Turkana County)_MICS5_Datasets"
"296",2,3,NA,1,2,10,NA,2,NA,2,"Rural","Turkana",NA,"Yes","No","10",NA,"No",NA,"Second","Kenya (Turkana County)_MICS5_Datasets"
"297",2,3,NA,1,2,12,NA,2,NA,2,"Rural","Turkana",NA,"Yes","No","12",NA,"No",NA,"Second","Kenya (Turkana County)_MICS5_Datasets"
"298",2,3,NA,1,2,24,NA,NA,NA,3,"Rural","Turkana",NA,"Yes","No","24",NA,NA,NA,"Middle","Kenya (Turkana County)_MICS5_Datasets"
"299",2,3,NA,1,2,5,NA,2,NA,3,"Rural","Turkana",NA,"Yes","No","5",NA,"No",NA,"Middle","Kenya (Turkana County)_MICS5_Datasets"
"300",2,3,NA,1,2,7,NA,2,NA,3,"Rural","Turkana",NA,"Yes","No","7",NA,"No",NA,"Middle","Kenya (Turkana County)_MICS5_Datasets"
"301",2,3,NA,1,2,2,NA,2,NA,1,"Rural","Turkana",NA,"Yes","No","2",NA,"No",NA,"Poorest","Kenya (Turkana County)_MICS5_Datasets"
"302",2,3,NA,1,2,1,NA,2,NA,4,"Rural","Turkana",NA,"Yes","No","1",NA,"No",NA,"Fourth","Kenya (Turkana County)_MICS5_Datasets"
"303",2,3,NA,1,2,4,NA,2,NA,4,"Rural","Turkana",NA,"Yes","No","4",NA,"No",NA,"Fourth","Kenya (Turkana County)_MICS5_Datasets"
"304",2,3,NA,1,2,1,NA,2,NA,3,"Rural","Turkana",NA,"Yes","No","1",NA,"No",NA,"Middle","Kenya (Turkana County)_MICS5_Datasets"
"305",2,3,NA,1,2,12,NA,2,NA,1,"Rural","Turkana",NA,"Yes","No","12",NA,"No",NA,"Poorest","Kenya (Turkana County)_MICS5_Datasets"
"306",2,3,NA,1,2,1,NA,2,NA,4,"Rural","Turkana",NA,"Yes","No","1",NA,"No",NA,"Fourth","Kenya (Turkana County)_MICS5_Datasets"
"307",2,3,NA,1,2,10,NA,2,NA,4,"Rural","Turkana",NA,"Yes","No","10",NA,"No",NA,"Fourth","Kenya (Turkana County)_MICS5_Datasets"
"308",2,3,NA,1,2,12,NA,2,NA,4,"Rural","Turkana",NA,"Yes","No","12",NA,"No",NA,"Fourth","Kenya (Turkana County)_MICS5_Datasets"
"309",2,3,NA,1,2,15,NA,NA,NA,4,"Rural","Turkana",NA,"Yes","No","15",NA,NA,NA,"Fourth","Kenya (Turkana County)_MICS5_Datasets"
"310",2,3,NA,1,2,0,NA,2,NA,4,"Rural","Turkana",NA,"Yes","No","0",NA,"No",NA,"Fourth","Kenya (Turkana County)_MICS5_Datasets"
"311",2,3,NA,1,2,7,NA,2,NA,4,"Rural","Turkana",NA,"Yes","No","7",NA,"No",NA,"Fourth","Kenya (Turkana County)_MICS5_Datasets"
"312",2,3,NA,1,2,8,NA,2,NA,4,"Rural","Turkana",NA,"Yes","No","8",NA,"No",NA,"Fourth","Kenya (Turkana County)_MICS5_Datasets"
"313",2,3,NA,1,2,7,NA,2,NA,2,"Rural","Turkana",NA,"Yes","No","7",NA,"No",NA,"Second","Kenya (Turkana County)_MICS5_Datasets"
"314",2,3,NA,1,2,9,NA,2,NA,2,"Rural","Turkana",NA,"Yes","No","9",NA,"No",NA,"Second","Kenya (Turkana County)_MICS5_Datasets"
"315",2,3,NA,1,2,12,NA,2,NA,2,"Rural","Turkana",NA,"Yes","No","12",NA,"No",NA,"Second","Kenya (Turkana County)_MICS5_Datasets"
"316",2,3,NA,1,2,0,NA,2,NA,3,"Rural","Turkana",NA,"Yes","No","0",NA,"No",NA,"Middle","Kenya (Turkana County)_MICS5_Datasets"
"317",2,3,NA,1,2,16,NA,NA,NA,3,"Rural","Turkana",NA,"Yes","No","16",NA,NA,NA,"Middle","Kenya (Turkana County)_MICS5_Datasets"
"318",2,3,NA,1,2,0,NA,2,NA,2,"Rural","Turkana",NA,"Yes","No","0",NA,"No",NA,"Second","Kenya (Turkana County)_MICS5_Datasets"
"319",2,3,NA,1,2,10,NA,2,NA,2,"Rural","Turkana",NA,"Yes","No","10",NA,"No",NA,"Second","Kenya (Turkana County)_MICS5_Datasets"
"320",2,3,NA,1,2,12,NA,2,NA,2,"Rural","Turkana",NA,"Yes","No","12",NA,"No",NA,"Second","Kenya (Turkana County)_MICS5_Datasets"
"321",2,3,NA,1,2,0,NA,2,NA,2,"Rural","Turkana",NA,"Yes","No","0",NA,"No",NA,"Second","Kenya (Turkana County)_MICS5_Datasets"
"322",1,3,NA,1,2,8,NA,2,NA,5,"Urban","Turkana",NA,"Yes","No","8",NA,"No",NA,"Richest","Kenya (Turkana County)_MICS5_Datasets"
"323",1,3,NA,1,2,19,NA,NA,NA,5,"Urban","Turkana",NA,"Yes","No","19",NA,NA,NA,"Richest","Kenya (Turkana County)_MICS5_Datasets"
"324",1,3,NA,1,2,23,NA,NA,NA,5,"Urban","Turkana",NA,"Yes","No","23",NA,NA,NA,"Richest","Kenya (Turkana County)_MICS5_Datasets"
"325",1,3,NA,1,2,5,NA,9,NA,5,"Urban","Turkana",NA,"Yes","No","5",NA,"Missing",NA,"Richest","Kenya (Turkana County)_MICS5_Datasets"
"326",1,3,NA,1,2,11,NA,9,NA,5,"Urban","Turkana",NA,"Yes","No","11",NA,"Missing",NA,"Richest","Kenya (Turkana County)_MICS5_Datasets"
"327",1,3,NA,1,2,15,NA,NA,NA,5,"Urban","Turkana",NA,"Yes","No","15",NA,NA,NA,"Richest","Kenya (Turkana County)_MICS5_Datasets"
"328",1,3,NA,1,1,0,NA,2,NA,5,"Urban","Turkana",NA,"Yes","Yes","0",NA,"No",NA,"Richest","Kenya (Turkana County)_MICS5_Datasets"
"329",1,3,NA,1,1,5,NA,2,NA,5,"Urban","Turkana",NA,"Yes","Yes","5",NA,"No",NA,"Richest","Kenya (Turkana County)_MICS5_Datasets"
"330",1,3,NA,1,1,8,NA,2,NA,5,"Urban","Turkana",NA,"Yes","Yes","8",NA,"No",NA,"Richest","Kenya (Turkana County)_MICS5_Datasets"
"331",1,3,NA,1,1,11,NA,1,9,5,"Urban","Turkana",NA,"Yes","Yes","11",NA,"Yes","9","Richest","Kenya (Turkana County)_MICS5_Datasets"
"332",1,3,NA,1,2,8,NA,2,NA,5,"Urban","Turkana",NA,"Yes","No","8",NA,"No",NA,"Richest","Kenya (Turkana County)_MICS5_Datasets"
"333",1,3,NA,1,2,14,NA,2,NA,5,"Urban","Turkana",NA,"Yes","No","14",NA,"No",NA,"Richest","Kenya (Turkana County)_MICS5_Datasets"
"334",1,3,NA,1,2,17,NA,NA,NA,5,"Urban","Turkana",NA,"Yes","No","17",NA,NA,NA,"Richest","Kenya (Turkana County)_MICS5_Datasets"
"335",1,3,NA,1,1,4,NA,2,NA,5,"Urban","Turkana",NA,"Yes","Yes","4",NA,"No",NA,"Richest","Kenya (Turkana County)_MICS5_Datasets"
"336",1,3,NA,1,1,5,NA,2,NA,5,"Urban","Turkana",NA,"Yes","Yes","5",NA,"No",NA,"Richest","Kenya (Turkana County)_MICS5_Datasets"
"337",1,3,NA,1,2,5,NA,9,NA,5,"Urban","Turkana",NA,"Yes","No","5",NA,"Missing",NA,"Richest","Kenya (Turkana County)_MICS5_Datasets"
"338",1,3,NA,1,2,6,NA,9,NA,5,"Urban","Turkana",NA,"Yes","No","6",NA,"Missing",NA,"Richest","Kenya (Turkana County)_MICS5_Datasets"
"339",1,3,NA,1,2,8,NA,2,NA,5,"Urban","Turkana",NA,"Yes","No","8",NA,"No",NA,"Richest","Kenya (Turkana County)_MICS5_Datasets"
"340",1,3,NA,1,2,4,NA,2,NA,4,"Urban","Turkana",NA,"Yes","No","4",NA,"No",NA,"Fourth","Kenya (Turkana County)_MICS5_Datasets"
"341",1,3,NA,1,2,12,NA,2,NA,4,"Urban","Turkana",NA,"Yes","No","12",NA,"No",NA,"Fourth","Kenya (Turkana County)_MICS5_Datasets"
"342",1,3,NA,1,2,16,NA,NA,NA,4,"Urban","Turkana",NA,"Yes","No","16",NA,NA,NA,"Fourth","Kenya (Turkana County)_MICS5_Datasets"
"343",1,3,NA,1,2,5,NA,2,NA,5,"Urban","Turkana",NA,"Yes","No","5",NA,"No",NA,"Richest","Kenya (Turkana County)_MICS5_Datasets"
"344",1,3,NA,1,2,7,NA,2,NA,5,"Urban","Turkana",NA,"Yes","No","7",NA,"No",NA,"Richest","Kenya (Turkana County)_MICS5_Datasets"
"345",1,3,NA,1,2,0,NA,2,NA,4,"Urban","Turkana",NA,"Yes","No","0",NA,"No",NA,"Fourth","Kenya (Turkana County)_MICS5_Datasets"
"346",1,3,NA,1,2,14,NA,2,NA,5,"Urban","Turkana",NA,"Yes","No","14",NA,"No",NA,"Richest","Kenya (Turkana County)_MICS5_Datasets"
"347",1,3,NA,1,2,16,NA,NA,NA,5,"Urban","Turkana",NA,"Yes","No","16",NA,NA,NA,"Richest","Kenya (Turkana County)_MICS5_Datasets"
"348",1,3,NA,1,2,5,NA,9,NA,5,"Urban","Turkana",NA,"Yes","No","5",NA,"Missing",NA,"Richest","Kenya (Turkana County)_MICS5_Datasets"
"349",1,3,NA,1,2,0,NA,2,NA,4,"Urban","Turkana",NA,"Yes","No","0",NA,"No",NA,"Fourth","Kenya (Turkana County)_MICS5_Datasets"
"350",1,3,NA,2,2,11,NA,2,NA,4,"Urban","Turkana",NA,"No","No","11",NA,"No",NA,"Fourth","Kenya (Turkana County)_MICS5_Datasets"
"351",1,3,NA,1,2,10,NA,2,NA,5,"Urban","Turkana",NA,"Yes","No","10",NA,"No",NA,"Richest","Kenya (Turkana County)_MICS5_Datasets"
"352",1,3,NA,1,2,26,NA,NA,NA,5,"Urban","Turkana",NA,"Yes","No","26",NA,NA,NA,"Richest","Kenya (Turkana County)_MICS5_Datasets"
"353",1,3,NA,1,2,3,NA,2,NA,4,"Urban","Turkana",NA,"Yes","No","3",NA,"No",NA,"Fourth","Kenya (Turkana County)_MICS5_Datasets"
"354",1,3,NA,1,2,10,NA,2,NA,5,"Urban","Turkana",NA,"Yes","No","10",NA,"No",NA,"Richest","Kenya (Turkana County)_MICS5_Datasets"
"355",1,3,NA,2,2,7,NA,2,NA,5,"Urban","Turkana",NA,"No","No","7",NA,"No",NA,"Richest","Kenya (Turkana County)_MICS5_Datasets"
"356",1,3,NA,2,2,14,NA,2,NA,5,"Urban","Turkana",NA,"No","No","14",NA,"No",NA,"Richest","Kenya (Turkana County)_MICS5_Datasets"
"357",1,3,NA,1,2,6,NA,2,NA,4,"Urban","Turkana",NA,"Yes","No","6",NA,"No",NA,"Fourth","Kenya (Turkana County)_MICS5_Datasets"
"358",1,3,NA,1,2,8,NA,2,NA,5,"Urban","Turkana",NA,"Yes","No","8",NA,"No",NA,"Richest","Kenya (Turkana County)_MICS5_Datasets"
"359",1,3,NA,1,2,14,NA,2,NA,5,"Urban","Turkana",NA,"Yes","No","14",NA,"No",NA,"Richest","Kenya (Turkana County)_MICS5_Datasets"
"360",1,3,NA,1,2,17,NA,NA,NA,5,"Urban","Turkana",NA,"Yes","No","17",NA,NA,NA,"Richest","Kenya (Turkana County)_MICS5_Datasets"
"361",1,3,NA,1,2,5,NA,2,NA,5,"Urban","Turkana",NA,"Yes","No","5",NA,"No",NA,"Richest","Kenya (Turkana County)_MICS5_Datasets"
"362",1,3,NA,1,2,3,NA,2,NA,5,"Urban","Turkana",NA,"Yes","No","3",NA,"No",NA,"Richest","Kenya (Turkana County)_MICS5_Datasets"
"363",1,3,NA,1,2,6,NA,2,NA,5,"Urban","Turkana",NA,"Yes","No","6",NA,"No",NA,"Richest","Kenya (Turkana County)_MICS5_Datasets"
"364",1,3,NA,1,2,0,NA,9,NA,5,"Urban","Turkana",NA,"Yes","No","0",NA,"Missing",NA,"Richest","Kenya (Turkana County)_MICS5_Datasets"
"365",1,3,NA,1,2,13,NA,2,NA,5,"Urban","Turkana",NA,"Yes","No","13",NA,"No",NA,"Richest","Kenya (Turkana County)_MICS5_Datasets"
"366",1,3,NA,1,2,6,NA,2,NA,5,"Urban","Turkana",NA,"Yes","No","6",NA,"No",NA,"Richest","Kenya (Turkana County)_MICS5_Datasets"
"367",1,3,NA,1,2,7,NA,2,NA,5,"Urban","Turkana",NA,"Yes","No","7",NA,"No",NA,"Richest","Kenya (Turkana County)_MICS5_Datasets"
"368",1,3,NA,1,2,11,NA,2,NA,4,"Urban","Turkana",NA,"Yes","No","11",NA,"No",NA,"Fourth","Kenya (Turkana County)_MICS5_Datasets"
"369",1,3,NA,1,2,12,NA,2,NA,4,"Urban","Turkana",NA,"Yes","No","12",NA,"No",NA,"Fourth","Kenya (Turkana County)_MICS5_Datasets"
"370",1,3,NA,1,2,18,NA,NA,NA,4,"Urban","Turkana",NA,"Yes","No","18",NA,NA,NA,"Fourth","Kenya (Turkana County)_MICS5_Datasets"
"371",1,3,NA,1,2,9,NA,2,NA,5,"Urban","Turkana",NA,"Yes","No","9",NA,"No",NA,"Richest","Kenya (Turkana County)_MICS5_Datasets"
"372",1,3,NA,1,2,10,NA,2,NA,5,"Urban","Turkana",NA,"Yes","No","10",NA,"No",NA,"Richest","Kenya (Turkana County)_MICS5_Datasets"
"373",1,3,NA,1,2,14,NA,2,NA,5,"Urban","Turkana",NA,"Yes","No","14",NA,"No",NA,"Richest","Kenya (Turkana County)_MICS5_Datasets"
"374",1,3,NA,1,2,1,NA,2,NA,5,"Urban","Turkana",NA,"Yes","No","1",NA,"No",NA,"Richest","Kenya (Turkana County)_MICS5_Datasets"
"375",1,3,NA,1,2,13,NA,2,NA,5,"Urban","Turkana",NA,"Yes","No","13",NA,"No",NA,"Richest","Kenya (Turkana County)_MICS5_Datasets"
"376",1,3,NA,1,2,14,NA,2,NA,5,"Urban","Turkana",NA,"Yes","No","14",NA,"No",NA,"Richest","Kenya (Turkana County)_MICS5_Datasets"
"377",1,3,NA,1,2,15,NA,NA,NA,5,"Urban","Turkana",NA,"Yes","No","15",NA,NA,NA,"Richest","Kenya (Turkana County)_MICS5_Datasets"
"378",1,3,NA,1,2,16,NA,NA,NA,5,"Urban","Turkana",NA,"Yes","No","16",NA,NA,NA,"Richest","Kenya (Turkana County)_MICS5_Datasets"
"379",1,3,NA,1,2,2,NA,2,NA,5,"Urban","Turkana",NA,"Yes","No","2",NA,"No",NA,"Richest","Kenya (Turkana County)_MICS5_Datasets"
"380",1,3,NA,1,2,5,NA,2,NA,5,"Urban","Turkana",NA,"Yes","No","5",NA,"No",NA,"Richest","Kenya (Turkana County)_MICS5_Datasets"
"381",1,3,NA,1,2,0,NA,9,NA,5,"Urban","Turkana",NA,"Yes","No","0",NA,"Missing",NA,"Richest","Kenya (Turkana County)_MICS5_Datasets"
"382",1,3,NA,1,2,10,NA,9,NA,5,"Urban","Turkana",NA,"Yes","No","10",NA,"Missing",NA,"Richest","Kenya (Turkana County)_MICS5_Datasets"
"383",1,3,NA,1,2,14,NA,9,NA,5,"Urban","Turkana",NA,"Yes","No","14",NA,"Missing",NA,"Richest","Kenya (Turkana County)_MICS5_Datasets"
"384",1,3,NA,1,2,15,NA,NA,NA,5,"Urban","Turkana",NA,"Yes","No","15",NA,NA,NA,"Richest","Kenya (Turkana County)_MICS5_Datasets"
"385",1,3,NA,1,2,18,NA,NA,NA,5,"Urban","Turkana",NA,"Yes","No","18",NA,NA,NA,"Richest","Kenya (Turkana County)_MICS5_Datasets"
"386",1,3,NA,1,2,14,NA,9,NA,3,"Urban","Turkana",NA,"Yes","No","14",NA,"Missing",NA,"Middle","Kenya (Turkana County)_MICS5_Datasets"
"387",1,3,NA,1,2,0,NA,9,NA,4,"Urban","Turkana",NA,"Yes","No","0",NA,"Missing",NA,"Fourth","Kenya (Turkana County)_MICS5_Datasets"
"388",1,3,NA,1,2,7,NA,2,NA,4,"Urban","Turkana",NA,"Yes","No","7",NA,"No",NA,"Fourth","Kenya (Turkana County)_MICS5_Datasets"
"389",1,3,NA,1,2,1,NA,2,NA,4,"Urban","Turkana",NA,"Yes","No","1",NA,"No",NA,"Fourth","Kenya (Turkana County)_MICS5_Datasets"
"390",1,3,NA,1,2,2,NA,2,NA,4,"Urban","Turkana",NA,"Yes","No","2",NA,"No",NA,"Fourth","Kenya (Turkana County)_MICS5_Datasets"
"391",1,3,NA,2,2,0,NA,2,NA,3,"Urban","Turkana",NA,"No","No","0",NA,"No",NA,"Middle","Kenya (Turkana County)_MICS5_Datasets"
"392",1,3,NA,1,2,0,NA,2,NA,4,"Urban","Turkana",NA,"Yes","No","0",NA,"No",NA,"Fourth","Kenya (Turkana County)_MICS5_Datasets"
"393",1,3,NA,1,2,5,NA,2,NA,4,"Urban","Turkana",NA,"Yes","No","5",NA,"No",NA,"Fourth","Kenya (Turkana County)_MICS5_Datasets"
"394",1,3,NA,1,2,11,NA,2,NA,4,"Urban","Turkana",NA,"Yes","No","11",NA,"No",NA,"Fourth","Kenya (Turkana County)_MICS5_Datasets"
"395",1,3,NA,1,2,6,NA,2,NA,4,"Urban","Turkana",NA,"Yes","No","6",NA,"No",NA,"Fourth","Kenya (Turkana County)_MICS5_Datasets"
"396",1,3,NA,1,2,7,NA,2,NA,4,"Urban","Turkana",NA,"Yes","No","7",NA,"No",NA,"Fourth","Kenya (Turkana County)_MICS5_Datasets"
"397",1,3,NA,2,2,4,NA,2,NA,3,"Urban","Turkana",NA,"No","No","4",NA,"No",NA,"Middle","Kenya (Turkana County)_MICS5_Datasets"
"398",1,3,NA,1,2,3,NA,2,NA,5,"Urban","Turkana",NA,"Yes","No","3",NA,"No",NA,"Richest","Kenya (Turkana County)_MICS5_Datasets"
"399",1,3,NA,1,2,7,NA,2,NA,5,"Urban","Turkana",NA,"Yes","No","7",NA,"No",NA,"Richest","Kenya (Turkana County)_MICS5_Datasets"
"400",1,3,NA,1,1,25,NA,NA,NA,4,"Urban","Turkana",NA,"Yes","Yes","25",NA,NA,NA,"Fourth","Kenya (Turkana County)_MICS5_Datasets"
"401",1,3,NA,1,1,8,NA,1,4,4,"Urban","Turkana",NA,"Yes","Yes","8",NA,"Yes","4","Fourth","Kenya (Turkana County)_MICS5_Datasets"
"402",1,3,NA,1,1,2,NA,2,NA,3,"Urban","Turkana",NA,"Yes","Yes","2",NA,"No",NA,"Middle","Kenya (Turkana County)_MICS5_Datasets"
"403",1,3,NA,1,2,18,NA,NA,NA,4,"Urban","Turkana",NA,"Yes","No","18",NA,NA,NA,"Fourth","Kenya (Turkana County)_MICS5_Datasets"
"404",1,3,NA,2,2,5,NA,2,NA,4,"Urban","Turkana",NA,"No","No","5",NA,"No",NA,"Fourth","Kenya (Turkana County)_MICS5_Datasets"
"405",1,3,NA,1,1,11,NA,1,5,3,"Urban","Turkana",NA,"Yes","Yes","11",NA,"Yes","5","Middle","Kenya (Turkana County)_MICS5_Datasets"
"406",1,3,NA,1,1,15,NA,NA,NA,3,"Urban","Turkana",NA,"Yes","Yes","15",NA,NA,NA,"Middle","Kenya (Turkana County)_MICS5_Datasets"
"407",1,3,NA,1,1,0,NA,2,NA,4,"Urban","Turkana",NA,"Yes","Yes","0",NA,"No",NA,"Fourth","Kenya (Turkana County)_MICS5_Datasets"
"408",1,3,NA,1,1,3,NA,2,NA,4,"Urban","Turkana",NA,"Yes","Yes","3",NA,"No",NA,"Fourth","Kenya (Turkana County)_MICS5_Datasets"
"409",1,3,NA,1,1,11,NA,1,98,3,"Urban","Turkana",NA,"Yes","Yes","11",NA,"Yes","DK","Middle","Kenya (Turkana County)_MICS5_Datasets"
"410",1,3,NA,1,1,12,NA,1,98,3,"Urban","Turkana",NA,"Yes","Yes","12",NA,"Yes","DK","Middle","Kenya (Turkana County)_MICS5_Datasets"
"411",1,3,NA,1,1,0,NA,2,NA,3,"Urban","Turkana",NA,"Yes","Yes","0",NA,"No",NA,"Middle","Kenya (Turkana County)_MICS5_Datasets"
"412",1,3,NA,1,1,9,NA,2,NA,3,"Urban","Turkana",NA,"Yes","Yes","9",NA,"No",NA,"Middle","Kenya (Turkana County)_MICS5_Datasets"
"413",1,3,NA,1,1,5,NA,2,NA,3,"Urban","Turkana",NA,"Yes","Yes","5",NA,"No",NA,"Middle","Kenya (Turkana County)_MICS5_Datasets"
"414",1,3,NA,1,1,6,NA,2,NA,3,"Urban","Turkana",NA,"Yes","Yes","6",NA,"No",NA,"Middle","Kenya (Turkana County)_MICS5_Datasets"
"415",1,3,NA,1,1,9,NA,2,NA,3,"Urban","Turkana",NA,"Yes","Yes","9",NA,"No",NA,"Middle","Kenya (Turkana County)_MICS5_Datasets"
"416",1,3,NA,1,1,13,NA,2,NA,3,"Urban","Turkana",NA,"Yes","Yes","13",NA,"No",NA,"Middle","Kenya (Turkana County)_MICS5_Datasets"
"417",1,3,NA,1,1,14,NA,2,NA,3,"Urban","Turkana",NA,"Yes","Yes","14",NA,"No",NA,"Middle","Kenya (Turkana County)_MICS5_Datasets"
"418",1,3,NA,1,2,10,NA,2,NA,4,"Urban","Turkana",NA,"Yes","No","10",NA,"No",NA,"Fourth","Kenya (Turkana County)_MICS5_Datasets"
"419",1,3,NA,1,2,18,NA,NA,NA,4,"Urban","Turkana",NA,"Yes","No","18",NA,NA,NA,"Fourth","Kenya (Turkana County)_MICS5_Datasets"
"420",1,3,NA,1,2,5,NA,1,99,1,"Urban","Turkana",NA,"Yes","No","5",NA,"Yes","Missing","Poorest","Kenya (Turkana County)_MICS5_Datasets"
"421",1,3,NA,1,2,20,NA,NA,NA,3,"Urban","Turkana",NA,"Yes","No","20",NA,NA,NA,"Middle","Kenya (Turkana County)_MICS5_Datasets"
"422",1,3,NA,1,2,22,NA,NA,NA,3,"Urban","Turkana",NA,"Yes","No","22",NA,NA,NA,"Middle","Kenya (Turkana County)_MICS5_Datasets"
"423",1,3,NA,1,2,0,NA,2,NA,4,"Urban","Turkana",NA,"Yes","No","0",NA,"No",NA,"Fourth","Kenya (Turkana County)_MICS5_Datasets"
"424",1,3,NA,1,2,3,NA,2,NA,4,"Urban","Turkana",NA,"Yes","No","3",NA,"No",NA,"Fourth","Kenya (Turkana County)_MICS5_Datasets"
"425",1,3,NA,2,2,17,NA,NA,NA,2,"Urban","Turkana",NA,"No","No","17",NA,NA,NA,"Second","Kenya (Turkana County)_MICS5_Datasets"
"426",1,3,NA,1,2,15,NA,NA,NA,2,"Urban","Turkana",NA,"Yes","No","15",NA,NA,NA,"Second","Kenya (Turkana County)_MICS5_Datasets"
"427",1,3,NA,1,2,2,NA,2,NA,4,"Urban","Turkana",NA,"Yes","No","2",NA,"No",NA,"Fourth","Kenya (Turkana County)_MICS5_Datasets"
"428",1,3,NA,1,2,4,NA,2,NA,4,"Urban","Turkana",NA,"Yes","No","4",NA,"No",NA,"Fourth","Kenya (Turkana County)_MICS5_Datasets"
"429",1,3,NA,1,2,1,NA,2,NA,4,"Urban","Turkana",NA,"Yes","No","1",NA,"No",NA,"Fourth","Kenya (Turkana County)_MICS5_Datasets"
"430",1,3,NA,1,2,4,NA,2,NA,5,"Urban","Turkana",NA,"Yes","No","4",NA,"No",NA,"Richest","Kenya (Turkana County)_MICS5_Datasets"
"431",1,3,NA,1,2,6,NA,2,NA,5,"Urban","Turkana",NA,"Yes","No","6",NA,"No",NA,"Richest","Kenya (Turkana County)_MICS5_Datasets"
"432",1,3,NA,1,2,9,NA,2,NA,5,"Urban","Turkana",NA,"Yes","No","9",NA,"No",NA,"Richest","Kenya (Turkana County)_MICS5_Datasets"
"433",1,3,NA,1,2,12,NA,2,NA,5,"Urban","Turkana",NA,"Yes","No","12",NA,"No",NA,"Richest","Kenya (Turkana County)_MICS5_Datasets"
"434",1,3,NA,1,2,9,NA,2,NA,2,"Urban","Turkana",NA,"Yes","No","9",NA,"No",NA,"Second","Kenya (Turkana County)_MICS5_Datasets"
"435",1,3,NA,1,2,13,NA,2,NA,2,"Urban","Turkana",NA,"Yes","No","13",NA,"No",NA,"Second","Kenya (Turkana County)_MICS5_Datasets"
"436",1,3,NA,1,2,12,NA,9,NA,4,"Urban","Turkana",NA,"Yes","No","12",NA,"Missing",NA,"Fourth","Kenya (Turkana County)_MICS5_Datasets"
"437",1,3,NA,1,2,17,NA,NA,NA,4,"Urban","Turkana",NA,"Yes","No","17",NA,NA,NA,"Fourth","Kenya (Turkana County)_MICS5_Datasets"
"438",1,3,NA,1,2,6,NA,2,NA,3,"Urban","Turkana",NA,"Yes","No","6",NA,"No",NA,"Middle","Kenya (Turkana County)_MICS5_Datasets"
"439",1,3,NA,1,2,2,NA,2,NA,5,"Urban","Turkana",NA,"Yes","No","2",NA,"No",NA,"Richest","Kenya (Turkana County)_MICS5_Datasets"
"440",1,3,NA,1,2,5,NA,2,NA,5,"Urban","Turkana",NA,"Yes","No","5",NA,"No",NA,"Richest","Kenya (Turkana County)_MICS5_Datasets"
"441",1,3,NA,1,2,9,NA,2,NA,5,"Urban","Turkana",NA,"Yes","No","9",NA,"No",NA,"Richest","Kenya (Turkana County)_MICS5_Datasets"
"442",1,3,NA,1,2,12,NA,2,NA,5,"Urban","Turkana",NA,"Yes","No","12",NA,"No",NA,"Richest","Kenya (Turkana County)_MICS5_Datasets"
"443",1,3,NA,1,2,8,NA,2,NA,5,"Urban","Turkana",NA,"Yes","No","8",NA,"No",NA,"Richest","Kenya (Turkana County)_MICS5_Datasets"
"444",1,3,NA,1,2,14,NA,2,NA,5,"Urban","Turkana",NA,"Yes","No","14",NA,"No",NA,"Richest","Kenya (Turkana County)_MICS5_Datasets"
"445",1,3,NA,1,2,18,NA,NA,NA,5,"Urban","Turkana",NA,"Yes","No","18",NA,NA,NA,"Richest","Kenya (Turkana County)_MICS5_Datasets"
"446",1,3,NA,1,2,23,NA,NA,NA,5,"Urban","Turkana",NA,"Yes","No","23",NA,NA,NA,"Richest","Kenya (Turkana County)_MICS5_Datasets"
"447",1,3,NA,1,2,25,NA,NA,NA,5,"Urban","Turkana",NA,"Yes","No","25",NA,NA,NA,"Richest","Kenya (Turkana County)_MICS5_Datasets"
"448",1,3,NA,1,1,16,NA,NA,NA,4,"Urban","Turkana",NA,"Yes","Yes","16",NA,NA,NA,"Fourth","Kenya (Turkana County)_MICS5_Datasets"
"449",1,3,NA,1,2,13,NA,2,NA,4,"Urban","Turkana",NA,"Yes","No","13",NA,"No",NA,"Fourth","Kenya (Turkana County)_MICS5_Datasets"
"450",1,3,NA,1,2,17,NA,NA,NA,4,"Urban","Turkana",NA,"Yes","No","17",NA,NA,NA,"Fourth","Kenya (Turkana County)_MICS5_Datasets"
"451",1,3,NA,1,2,18,NA,NA,NA,4,"Urban","Turkana",NA,"Yes","No","18",NA,NA,NA,"Fourth","Kenya (Turkana County)_MICS5_Datasets"
"452",1,3,NA,1,2,3,NA,2,NA,1,"Urban","Turkana",NA,"Yes","No","3",NA,"No",NA,"Poorest","Kenya (Turkana County)_MICS5_Datasets"
"453",1,3,NA,1,2,0,NA,2,NA,1,"Urban","Turkana",NA,"Yes","No","0",NA,"No",NA,"Poorest","Kenya (Turkana County)_MICS5_Datasets"
"454",1,3,NA,1,2,4,NA,2,NA,1,"Urban","Turkana",NA,"Yes","No","4",NA,"No",NA,"Poorest","Kenya (Turkana County)_MICS5_Datasets"
"455",1,3,NA,1,2,9,NA,2,NA,1,"Urban","Turkana",NA,"Yes","No","9",NA,"No",NA,"Poorest","Kenya (Turkana County)_MICS5_Datasets"
